{
  "project_info": {
    "project_number": "89536996371",
    "project_id": "siswamedia",
    "storage_bucket": "siswamedia.appspot.com"
  },
  "client": [
    {
      "client_info": {
        "mobilesdk_app_id": "1:89536996371:android:f025a794e5360ed5a98be6",
        "android_client_info": {
          "package_name": "com.main.tegarmedia"
        }
      },
      "oauth_client": [
        {
          "client_id": "89536996371-5hq5ntd3ok0jrkqail0b9ppvu1vks5db.apps.googleusercontent.com",
          "client_type": 1,
          "android_info": {
            "package_name": "com.main.tegarmedia",
            "certificate_hash": "a7033e10c753489b7640973a4ec108b6e053a7fb"
          }
        },
        {
          "client_id": "89536996371-f464nq5gsc0qbavj2v70upvqqnigrm80.apps.googleusercontent.com",
          "client_type": 3
        }
      ],
      "api_key": [
        {
          "current_key": "AIzaSyCOYGlwcWT8n4MC_IYDWYIkm7A0Utm5IRM"
        }
      ],
      "services": {
        "appinvite_service": {
          "other_platform_oauth_client": [
            {
              "client_id": "89536996371-f464nq5gsc0qbavj2v70upvqqnigrm80.apps.googleusercontent.com",
              "client_type": 3
            }
          ]
        }
      }
    }
  ],
  "configuration_version": "1"
}